…
It includes the harmonics data for 637 US stations. The harmonics data was converted from harmonics-dwf-20151227-free, NOAA web site data processed by David Flater for XTide. The code to calculate tide heights from the harmonics is based on [XTide](http://www.flaterco.com/xtide/).

Utilisation
-----------

``` r
library(rtide)
#> rtide is not suitable for navigation

data <- rtide::tide_height(
  "Monterey Harbor", from = as.Date("2015-01-01"), to = as.Date("2015-01-01"), 
  minutes = 10L, tz = "PST8PDT")

print(data)
#> # A tibble: 144 × 3
#>                                  Station            DateTime TideHeight
#>                                    <chr>              <dttm>      <dbl>
#> 1  Monterey, Monterey Harbor, California 2015-01-01 00:00:00  0.6452338
#> 2  Monterey, Monterey Harbor, California 2015-01-01 00:10:00  0.6353040
#> 3  Monterey, Monterey Harbor, California 2015-01-01 00:20:00  0.6281772
#> 4  Monterey, Monterey Harbor, California 2015-01-01 00:30:00  0.6240083
#> 5  Monterey, Monterey Harbor, California 2015-01-01 00:40:00  0.6229294
#> 6  Monterey, Monterey Harbor, California 2015-01-01 00:50:00  0.6250485
#> 7  Monterey, Monterey Harbor, California 2015-01-01 01:00:00  0.6304487
#> 8  Monterey, Monterey Harbor, California 2015-01-01 01:10:00  0.6391874
#> 9  Monterey, Monterey Harbor, California 2015-01-01 01:20:00  0.6512954
#> 10 Monterey, Monterey Harbor, California 2015-01-01 01:30:00  0.6667771
#> # ... with 134 more rows
```
…
